\relax 
\providecommand\hyper@newdestlabel[2]{}
\providecommand\HyperFirstAtBeginDocument{\AtBeginDocument}
\HyperFirstAtBeginDocument{\ifx\hyper@anchor\@undefined
\global\let\oldcontentsline\contentsline
\gdef\contentsline#1#2#3#4{\oldcontentsline{#1}{#2}{#3}}
\global\let\oldnewlabel\newlabel
\gdef\newlabel#1#2{\newlabelxx{#1}#2}
\gdef\newlabelxx#1#2#3#4#5#6{\oldnewlabel{#1}{{#2}{#3}}}
\AtEndDocument{\ifx\hyper@anchor\@undefined
\let\contentsline\oldcontentsline
\let\newlabel\oldnewlabel
\fi}
\fi}
\global\let\hyper@last\relax 
\gdef\HyperFirstAtBeginDocument#1{#1}
\providecommand\HyField@AuxAddToFields[1]{}
\providecommand\HyField@AuxAddToCoFields[2]{}
\select@language{english}
\@writefile{toc}{\select@language{english}}
\@writefile{lof}{\select@language{english}}
\@writefile{lot}{\select@language{english}}
\newlabel{index::doc}{{}{1}{}{section*.2}{}}
\@writefile{toc}{\contentsline {chapter}{\numberline {1}Introduction}{1}{chapter.1}}
\@writefile{lof}{\addvspace {10\p@ }}
\@writefile{lot}{\addvspace {10\p@ }}
\newlabel{intro::doc}{{1}{1}{Introduction}{chapter.1}{}}
\newlabel{intro:welcome-to-text-analysis-of-financial-analyst-research-report-s-api-documentation}{{1}{1}{Introduction}{chapter.1}{}}
\newlabel{intro:introduction}{{1}{1}{Introduction}{chapter.1}{}}
\@writefile{toc}{\contentsline {section}{\numberline {1.1}sphinx}{1}{section.1.1}}
\newlabel{intro:sphinx}{{1.1}{1}{sphinx}{section.1.1}{}}
\@writefile{toc}{\contentsline {chapter}{\numberline {2}Installation Platform}{2}{chapter.2}}
\@writefile{lof}{\addvspace {10\p@ }}
\@writefile{lot}{\addvspace {10\p@ }}
\newlabel{platform::doc}{{2}{2}{Installation Platform}{chapter.2}{}}
\newlabel{platform:installation-platform}{{2}{2}{Installation Platform}{chapter.2}{}}
\@writefile{toc}{\contentsline {section}{\numberline {2.1}Operating System}{2}{section.2.1}}
\newlabel{platform:operating-system}{{2.1}{2}{Operating System}{section.2.1}{}}
\@writefile{toc}{\contentsline {section}{\numberline {2.2}Project specific packages}{2}{section.2.2}}
\newlabel{platform:project-specific-packages}{{2.2}{2}{Project specific packages}{section.2.2}{}}
\@writefile{toc}{\contentsline {subsection}{\numberline {2.2.1}packages}{2}{subsection.2.2.1}}
\newlabel{platform:packages}{{2.2.1}{2}{packages}{subsection.2.2.1}{}}
\@writefile{toc}{\contentsline {chapter}{\numberline {3}Contributors Application Programming Interface (API)}{3}{chapter.3}}
\@writefile{lof}{\addvspace {10\p@ }}
\@writefile{lot}{\addvspace {10\p@ }}
\newlabel{code::doc}{{3}{3}{Contributors Application Programming Interface (API)}{chapter.3}{}}
\newlabel{code:contributors-application-programming-interface-api}{{3}{3}{Contributors Application Programming Interface (API)}{chapter.3}{}}
\@writefile{toc}{\contentsline {section}{\numberline {3.1}Deutsche Bank Equity Research}{3}{section.3.1}}
\newlabel{code:module-DeutscheBankEquityResearch}{{3.1}{3}{Deutsche Bank Equity Research}{section.3.1}{}}
\newlabel{code:deutsche-bank-equity-research}{{3.1}{3}{Deutsche Bank Equity Research}{section.3.1}{}}
\newlabel{code:DeutscheBankEquityResearch.DeutscheBank2013}{{3.1}{3}{Deutsche Bank Equity Research}{section*.3}{}}
\@writefile{toc}{\contentsline {paragraph}{Example}{3}{paragraph*.4}}
\newlabel{code:DeutscheBankEquityResearch.DeutscheBank2016}{{3.1}{3}{Deutsche Bank Equity Research}{section*.5}{}}
\@writefile{toc}{\contentsline {paragraph}{Example}{4}{paragraph*.6}}
\newlabel{code:DeutscheBankEquityResearch.DeutscheBankEquityResearch}{{3.1}{4}{Deutsche Bank Equity Research}{section*.7}{}}
\@writefile{toc}{\contentsline {paragraph}{Example}{4}{paragraph*.8}}
\@writefile{toc}{\contentsline {section}{\numberline {3.2}Commerzbank Corporates \& Markets}{4}{section.3.2}}
\newlabel{code:module-CommerzbankCorporatesMarkets}{{3.2}{4}{Commerzbank Corporates \& Markets}{section.3.2}{}}
\newlabel{code:commerzbank-corporates-markets}{{3.2}{4}{Commerzbank Corporates \& Markets}{section.3.2}{}}
\newlabel{code:CommerzbankCorporatesMarkets.CommerzbankCorporatesMarkets}{{3.2}{4}{Commerzbank Corporates \& Markets}{section*.9}{}}
\@writefile{toc}{\contentsline {paragraph}{Example}{5}{paragraph*.10}}
\@writefile{toc}{\contentsline {section}{\numberline {3.3}JP Morgan}{5}{section.3.3}}
\newlabel{code:module-JPMorganEvaluation}{{3.3}{5}{JP Morgan}{section.3.3}{}}
\newlabel{code:jp-morgan}{{3.3}{5}{JP Morgan}{section.3.3}{}}
\newlabel{code:JPMorganEvaluation.JPMorganEval2009}{{3.3}{5}{JP Morgan}{section*.11}{}}
\@writefile{toc}{\contentsline {paragraph}{Example}{5}{paragraph*.12}}
\newlabel{code:JPMorganEvaluation.JPMorganEval2010}{{3.3}{5}{JP Morgan}{section*.13}{}}
\@writefile{toc}{\contentsline {paragraph}{Example}{6}{paragraph*.14}}
\newlabel{code:JPMorganEvaluation.JPMorganEval2016}{{3.3}{6}{JP Morgan}{section*.15}{}}
\@writefile{toc}{\contentsline {paragraph}{Example}{6}{paragraph*.16}}
\newlabel{code:JPMorganEvaluation.JPMorganEvaluation}{{3.3}{6}{JP Morgan}{section*.17}{}}
\@writefile{toc}{\contentsline {paragraph}{Example}{7}{paragraph*.18}}
\@writefile{toc}{\contentsline {section}{\numberline {3.4}Natixis}{7}{section.3.4}}
\newlabel{code:module-NatixisEvaluation}{{3.4}{7}{Natixis}{section.3.4}{}}
\newlabel{code:natixis}{{3.4}{7}{Natixis}{section.3.4}{}}
\newlabel{code:NatixisEvaluation.NatixisEvaluation}{{3.4}{7}{Natixis}{section*.19}{}}
\@writefile{toc}{\contentsline {paragraph}{Example}{7}{paragraph*.20}}
\@writefile{toc}{\contentsline {section}{\numberline {3.5}UBS}{8}{section.3.5}}
\newlabel{code:module-UBSEvaluation}{{3.5}{8}{UBS}{section.3.5}{}}
\newlabel{code:ubs}{{3.5}{8}{UBS}{section.3.5}{}}
\newlabel{code:UBSEvaluation.UBSEvaluation}{{3.5}{8}{UBS}{section*.21}{}}
\@writefile{toc}{\contentsline {paragraph}{Example}{8}{paragraph*.22}}
\@writefile{toc}{\contentsline {chapter}{\numberline {4}utility (Common Library)}{9}{chapter.4}}
\@writefile{lof}{\addvspace {10\p@ }}
\@writefile{lot}{\addvspace {10\p@ }}
\newlabel{code:module-utility}{{4}{9}{utility (Common Library)}{chapter.4}{}}
\newlabel{code:utility-common-library}{{4}{9}{utility (Common Library)}{chapter.4}{}}
\newlabel{code:utility.detect_language}{{4}{9}{utility (Common Library)}{section*.23}{}}
\@writefile{toc}{\contentsline {paragraph}{Example}{9}{paragraph*.24}}
\newlabel{code:utility.getContributorOfReport}{{4}{9}{utility (Common Library)}{section*.25}{}}
\@writefile{toc}{\contentsline {paragraph}{Example}{9}{paragraph*.26}}
\newlabel{code:utility.getYearOfReport}{{4}{9}{utility (Common Library)}{section*.27}{}}
\@writefile{toc}{\contentsline {paragraph}{Example}{10}{paragraph*.28}}
\newlabel{code:utility.grepDCFinFirstPage}{{4}{10}{utility (Common Library)}{section*.29}{}}
\@writefile{toc}{\contentsline {paragraph}{Example}{10}{paragraph*.30}}
\newlabel{code:utility.grepDDMinWholeDocs}{{4}{10}{utility (Common Library)}{section*.31}{}}
\@writefile{toc}{\contentsline {paragraph}{Example}{10}{paragraph*.32}}
\newlabel{code:utility.grepMULinFirstPageSAP}{{4}{10}{utility (Common Library)}{section*.33}{}}
\@writefile{toc}{\contentsline {paragraph}{Example}{11}{paragraph*.34}}
\@writefile{toc}{\contentsline {chapter}{\numberline {5}Show Case: Writing and using a parsor}{12}{chapter.5}}
\@writefile{lof}{\addvspace {10\p@ }}
\@writefile{lot}{\addvspace {10\p@ }}
\newlabel{code:show-case-writing-and-using-a-parsor}{{5}{12}{Show Case: Writing and using a parsor}{chapter.5}{}}
\@writefile{toc}{\contentsline {section}{\numberline {5.1}Reference for writing a new parser}{12}{section.5.1}}
\newlabel{code:reference-for-writing-a-new-parser}{{5.1}{12}{Reference for writing a new parser}{section.5.1}{}}
\@writefile{toc}{\contentsline {subsection}{\numberline {5.1.1}Taking Deutsche Telekom parser as a reference}{12}{subsection.5.1.1}}
\newlabel{code:module-new_parser_DeutscheTelekomAG}{{5.1.1}{12}{Taking Deutsche Telekom parser as a reference}{subsection.5.1.1}{}}
\newlabel{code:taking-deutsche-telekom-parser-as-a-reference}{{5.1.1}{12}{Taking Deutsche Telekom parser as a reference}{subsection.5.1.1}{}}
\newlabel{code:new_parser_DeutscheTelekomAG.extract_buysell_decision}{{5.1.1}{12}{Taking Deutsche Telekom parser as a reference}{section*.35}{}}
\@writefile{toc}{\contentsline {paragraph}{Example}{12}{paragraph*.36}}
\newlabel{code:new_parser_DeutscheTelekomAG.extract_evaluation_method}{{5.1.1}{12}{Taking Deutsche Telekom parser as a reference}{section*.37}{}}
\newlabel{code:new_parser_DeutscheTelekomAG.extract_evaluation_method_multiple}{{5.1.1}{13}{Taking Deutsche Telekom parser as a reference}{section*.38}{}}
\@writefile{toc}{\contentsline {paragraph}{Example}{13}{paragraph*.39}}
\newlabel{code:new_parser_DeutscheTelekomAG.extract_target_price}{{5.1.1}{13}{Taking Deutsche Telekom parser as a reference}{section*.40}{}}
\@writefile{toc}{\contentsline {paragraph}{Example}{14}{paragraph*.41}}
\@writefile{toc}{\contentsline {chapter}{Python Module Index}{15}{section*.42}}
\@writefile{toc}{\contentsline {chapter}{Index}{16}{section*.43}}
